(module "RNN 18-QFN" (layer F.Cu) (tedit 5BAB6950)
  (fp_text reference REF** (at -0.25 -2.75) (layer F.SilkS)
    (effects (font (size 0.6 0.6) (thickness 0.15)))
  )
  (fp_text value "RNN 18-QFN" (at 0 3.25) (layer F.Fab)
    (effects (font (size 1 1) (thickness 0.15)))
  )
  (fp_line (start 1.55 -1.8) (end 1.8 -1.8) (layer F.SilkS) (width 0.1))
  (fp_line (start 1.8 -1.8) (end 1.8 -1.3) (layer F.SilkS) (width 0.1))
  (fp_line (start -1.8 -1.8) (end -1.8 -1.3) (layer F.SilkS) (width 0.1))
  (fp_line (start -1.55 -1.8) (end -1.8 -1.8) (layer F.SilkS) (width 0.1))
  (fp_circle (center -2 -2) (end -1.9 -2) (layer F.SilkS) (width 0.2))
  (fp_line (start 1.55 1.8) (end 1.8 1.8) (layer F.SilkS) (width 0.1))
  (fp_line (start 1.8 1.8) (end 1.8 1.7) (layer F.SilkS) (width 0.1))
  (fp_line (start -1.55 1.8) (end -1.8 1.8) (layer F.SilkS) (width 0.1))
  (fp_line (start -1.8 1.8) (end -1.8 1.7) (layer F.SilkS) (width 0.1))
  (pad 18 smd roundrect (at -1.25 -1.65) (size 0.25 0.6) (layers F.Cu F.Paste F.Mask) (roundrect_rratio 0.2)
    (solder_mask_margin 0.05))
  (pad 17 smd roundrect (at -0.75 -1.65) (size 0.25 0.6) (layers F.Cu F.Paste F.Mask) (roundrect_rratio 0.2)
    (solder_mask_margin 0.05))
  (pad 16 smd roundrect (at -0.25 -1.65) (size 0.25 0.6) (layers F.Cu F.Paste F.Mask) (roundrect_rratio 0.2)
    (solder_mask_margin 0.05))
  (pad 1 smd roundrect (at -1.65 -0.925 90) (size 0.25 0.6) (layers F.Cu F.Paste F.Mask) (roundrect_rratio 0.2)
    (solder_mask_margin 0.05))
  (pad 2 smd roundrect (at -1.375 -0.35 90) (size 0.4 1.15) (layers F.Cu F.Paste F.Mask) (roundrect_rratio 0.2)
    (solder_mask_margin 0.05))
  (pad 3 smd roundrect (at -1.375 0.3 90) (size 0.25 1.15) (layers F.Cu F.Paste F.Mask) (roundrect_rratio 0.2)
    (solder_mask_margin 0.05))
  (pad 4 smd roundrect (at -1.375 0.85 90) (size 0.25 1.15) (layers F.Cu F.Paste F.Mask) (roundrect_rratio 0.2)
    (solder_mask_margin 0.05))
  (pad 5 smd roundrect (at -1.375 1.4 90) (size 0.25 1.15) (layers F.Cu F.Paste F.Mask) (roundrect_rratio 0.2)
    (solder_mask_margin 0.05))
  (pad 6 smd roundrect (at -0.3 0.65 180) (size 0.3 2.6) (layers F.Cu F.Paste F.Mask) (roundrect_rratio 0.2)
    (solder_mask_margin 0.05))
  (pad 14 smd roundrect (at 0.75 -1.65) (size 0.25 0.6) (layers F.Cu F.Paste F.Mask) (roundrect_rratio 0.2)
    (solder_mask_margin 0.05))
  (pad 10 smd roundrect (at 1.375 0.3 270) (size 0.25 1.15) (layers F.Cu F.Paste F.Mask) (roundrect_rratio 0.2)
    (solder_mask_margin 0.05))
  (pad 7 smd roundrect (at 0.3 0.65 180) (size 0.3 2.6) (layers F.Cu F.Paste F.Mask) (roundrect_rratio 0.2)
    (solder_mask_margin 0.05))
  (pad 13 smd roundrect (at 1.25 -1.65) (size 0.25 0.6) (layers F.Cu F.Paste F.Mask) (roundrect_rratio 0.2)
    (solder_mask_margin 0.05))
  (pad 12 smd roundrect (at 1.65 -0.925 270) (size 0.25 0.6) (layers F.Cu F.Paste F.Mask) (roundrect_rratio 0.2)
    (solder_mask_margin 0.05))
  (pad 9 smd roundrect (at 1.375 0.85 270) (size 0.25 1.15) (layers F.Cu F.Paste F.Mask) (roundrect_rratio 0.2)
    (solder_mask_margin 0.05))
  (pad 11 smd roundrect (at 1.375 -0.35 270) (size 0.4 1.15) (layers F.Cu F.Paste F.Mask) (roundrect_rratio 0.2)
    (solder_mask_margin 0.05))
  (pad 15 smd roundrect (at 0.25 -1.65) (size 0.25 0.6) (layers F.Cu F.Paste F.Mask) (roundrect_rratio 0.2)
    (solder_mask_margin 0.05))
  (pad 8 smd roundrect (at 1.375 1.4 270) (size 0.25 1.15) (layers F.Cu F.Paste F.Mask) (roundrect_rratio 0.2)
    (solder_mask_margin 0.05))
)
