(module LVK12 (layer F.Cu) (tedit 5BA5BF4E)
  (attr smd)
  (fp_text reference REF** (at -3.725 0 90) (layer F.SilkS)
    (effects (font (size 1 1) (thickness 0.15)))
  )
  (fp_text value LVK12 (at 0 0) (layer F.Fab)
    (effects (font (size 1 1) (thickness 0.15)))
  )
  (fp_line (start -1.925 1.75) (end -2.725 0.95) (layer F.SilkS) (width 0.15))
  (fp_line (start -2.725 0.95) (end -2.725 -1.75) (layer F.SilkS) (width 0.15))
  (fp_line (start -2.725 -1.75) (end 2.725 -1.75) (layer F.SilkS) (width 0.15))
  (fp_line (start 2.725 -1.75) (end 2.725 1.75) (layer F.SilkS) (width 0.15))
  (fp_line (start 2.725 1.75) (end -1.925 1.75) (layer F.SilkS) (width 0.15))
  (fp_line (start -2.9 -1.9) (end 2.9 -1.9) (layer F.CrtYd) (width 0.05))
  (fp_line (start 2.9 -1.9) (end 2.9 1.9) (layer F.CrtYd) (width 0.05))
  (fp_line (start 2.9 1.9) (end -2.9 1.9) (layer F.CrtYd) (width 0.05))
  (fp_line (start -2.9 1.9) (end -2.9 -1.9) (layer F.CrtYd) (width 0.05))
  (pad 1 smd rect (at -1.375 -0.7) (size 1.7 1.1) (layers F.Cu F.Paste F.Mask))
  (pad 2 smd rect (at -1.375 0.7) (size 1.7 1.1) (layers F.Cu F.Paste F.Mask))
  (pad 4 smd rect (at 1.375 -0.7) (size 1.7 1.1) (layers F.Cu F.Paste F.Mask))
  (pad 3 smd rect (at 1.375 0.7) (size 1.7 1.1) (layers F.Cu F.Paste F.Mask))
)
