(module SRN1060_inductor (layer F.Cu) (tedit 0)
  (attr smd)
  (fp_text reference REF** (at -6.6 0 90) (layer F.SilkS)
    (effects (font (size 1 1) (thickness 0.15)))
  )
  (fp_text value SRN1060_inductor (at 0 0) (layer F.Fab)
    (effects (font (size 1 1) (thickness 0.15)))
  )
  (fp_line (start -4.8 5.55) (end -5.6 4.75) (layer F.SilkS) (width 0.15))
  (fp_line (start -5.6 4.75) (end -5.6 -5.55) (layer F.SilkS) (width 0.15))
  (fp_line (start -5.6 -5.55) (end 5.6 -5.55) (layer F.SilkS) (width 0.15))
  (fp_line (start 5.6 -5.55) (end 5.6 5.55) (layer F.SilkS) (width 0.15))
  (fp_line (start 5.6 5.55) (end -4.8 5.55) (layer F.SilkS) (width 0.15))
  (fp_line (start -5.75 -5.7) (end 5.75 -5.7) (layer F.CrtYd) (width 0.05))
  (fp_line (start 5.75 -5.7) (end 5.75 5.7) (layer F.CrtYd) (width 0.05))
  (fp_line (start 5.75 5.7) (end -5.75 5.7) (layer F.CrtYd) (width 0.05))
  (fp_line (start -5.75 5.7) (end -5.75 -5.7) (layer F.CrtYd) (width 0.05))
  (pad 2 smd rect (at 0 -3.3) (size 10.2 3.5) (layers F.Cu F.Paste F.Mask))
  (pad 1 smd rect (at 0 3.3) (size 10.2 3.5) (layers F.Cu F.Paste F.Mask))
)
